…
We will focus on the streets with relatively high amounts of citations. Namely, we will show distributions for Geary, Mission, O'Farrell, Post, and Sutter.

``` r
muni %>% 
  group_by(street_name) %>% 
  summarise(n())
```

    ## # A tibble: 26 x 2
    ##    street_name `n()`
    ##    <fct>       <int>
    ##  1 22nd St         1
    ##  2 3rd St         65
    ##  3 4th St         80
    ##  4 Bush            3
    ##  5 Chestnut        1
    ##  6 Clay           24
    ##  7 Folsom          1
    ##  8 Geary        2693
    ##  9 Haight          2
    ## 10 Kearny          3
    ## # ... with 16 more rows
…
Transit Lane Citations by Weekday
---------------------------------

Citations by Street Name

``` r
muni %>% 
  group_by(year, month) %>% 
  summarise(n())
```

    ## # A tibble: 84 x 3
    ## # Groups:   year [?]
    ##     year month `n()`
    ##    <int> <int> <int>
    ##  1  2008     2     1
    ##  2  2008     3    24
    ##  3  2008     4     7
    ##  4  2008     5    10
    ##  5  2008     6     2
    ##  6  2008     7    51
    ##  7  2008     8    30
    ##  8  2008     9    16
    ##  9  2008    10    12
    ## 10  2008    12    10
    ## # ... with 74 more rows
…
